…
``` elm
from {table_reference} # start with a from and table name
```

The `from` transform will return all columns and all rows from the table. Note: depending on your data set, this could be a very lengthy result. 

example:

``` elm
from artists # show all columns and data from the artists table
```

results:
```
┌───────────┬────────────────────────────────────────────────────────────────────────────────────┐
│ artist_id │                                        name                                        │
│   int32   │                                      varchar                                       │
├───────────┼────────────────────────────────────────────────────────────────────────────────────┤
│         1 │ AC/DC                                                                              │
│         2 │ Accept                                                                             │
│         3 │ Aerosmith                                                                          │
│         4 │ Alanis Morissette                                                                  │
│         5 │ Alice In Chains                                                                    │
│         · │      ·                                                                             │
│         · │      ·                                                                             │
│         · │      ·                                                                             │
│       271 │ Mela Tenenbaum, Pro Musica Prague & Richard Kapp                                   │
│       272 │ Emerson String Quartet                                                             │
│       273 │ C. Monteverdi, Nigel Rogers - Chiaroscuro; London Baroque; London Cornett & Sackbu │
│       274 │ Nash Ensemble                                                                      │
│       275 │ Philip Glass Ensemble                                                              │
├───────────┴────────────────────────────────────────────────────────────────────────────────────┤
│ 275 rows (10 shown)                                                                  2 columns │
└────────────────────────────────────────────────────────────────────────────────────────────────┘
```
Note: this result set was shortened for brevity of the tutorial.

As an example of how PRQL implements transformations, we can select just the name column from the artists table.

example:

``` elm
from artists # using the artists table
select name  # only display the name column
```

results:

```
┌────────────────────────────────────────────────────────────────────────────────────┐
│                                        name                                        │
│                                      varchar                                       │
├────────────────────────────────────────────────────────────────────────────────────┤
│ AC/DC                                                                              │
│ Accept                                                                             │
│ Aerosmith                                                                          │
│ Alanis Morissette                                                                  │
│ Alice In Chains                                                                    │
│      ·                                                                             │
│      ·                                                                             │
│      ·                                                                             │
│ Mela Tenenbaum, Pro Musica Prague & Richard Kapp                                   │
│ Emerson String Quartet                                                             │
│ C. Monteverdi, Nigel Rogers - Chiaroscuro; London Baroque; London Cornett & Sackbu │
│ Nash Ensemble                                                                      │
│ Philip Glass Ensemble                                                              │
├────────────────────────────────────────────────────────────────────────────────────┤
│                                275 rows (10 shown)                                 │
└────────────────────────────────────────────────────────────────────────────────────┘
```
…
